questions,var1,var2,var3,var4,correct
Крупнейшее озеро Африки,Танганьика,Виктория,Чад,Нил,Виктория
Где расположено Эфиопское нагорье,северо-восток Африки,Аравийский полуостров,северо-запад Австралии,полуостров Аляска,северо-восток Африки
Столица Хорватии,Дубровник,Любляна,Вена,Загреб,Загреб
Столица республики Башкортостан,Уфа,Казань,Ижевск,Оренбург,Уфа
Столица Чили,Буэнос-Айрес,Бразилиа,Сантьяго,Чили,Сантьяго
Какому государству принадлежит Гренландия?,Россия,США,Нидерланды,Дания,Дания
"Как называется река, протекающая через бразильские тропические леса?",Амазонка,Нил,Парана,Уругвай,Амазонка
В каком штате США находится Ниагарский водопад?,Нью-Йорк,Пенсильвания,Монтана,Юта,Нью-Йорк
Сколько штатов в США?,51,47,50,39,50
Сколько субъектов в России?,52,102,96,89,89
Сколько в России городов федерального значения,1,2,3,4,3
Какая страна не входит в СНГ?,Туркменистан,Грузия,Молдова,Азербайджан,Грузия
Самая маленькая страна в мире,Ватикан,Россия,Мальта,Монако,Ватикан
На каком полуострове расположена Португалия?,Аравийский,Пиренейский,Апеннинский,Балканский,Пиренейский
На каком полуострове расположена Италия?,Аравийский,Пиренейский,Апеннинский,Балканский,Апеннинский
В какой стране находится гора Эверест?,Непал,Россия,Китай,Индия,Непал
Сколько всего стран в мире,718,251,153,92,251
Столица Австралии,Калькутта,Мельбурн,Канберра,Сидней,Канберра
Через сколько океанов проходит экватор,2,3,4,5,3
В какой части атмосферы находится озоновый слой?,тропосфера,стратосфера,мезосфера,термосфера,стратосфера
В какой стране находится мыс Рока,Португалия,Россия,ЮАР,США,Португалия
Столицей какого государства является Стокгольм?,Дания,Швеция,Финляндия,Норвегия,Швеция
Сколько автономных областей в России?,1,3,48,89,1
В каком климатическом поясе находится большая часть территории России?,арктический,субарктический,умеренный,субтропический,умеренный
Сколько климатических поясов на территории Африки?,3,4,6,7,7
С какими государствами не граничит Казахстан?,Китай,Таджикистан,Узбекистан,Россия,Таджикистан
С какими государствами не граничит Алжир?,Тунис,Марокко,Нигерия,Мали,Нигерия
Какая религия не является мировой?,Христианство,Иудаизм,Ислам,Буддизм,Буддизм
Столица Забайкальского края,Иркутск,Чита,Улан-Удэ,Краснокаменск,Чита
С какими государствами не граничит Австрия?,Словения,Италия,Хорватия,Чехия,Хорватия
